…
#### How many pictures of beer are shared?

The #photo is indicative of a paired photo with a tweet from Untappd. The rest of the hash tags align with the Superbowl festivities

```r
tibble(hashtags = unlist(untp$hashtags)) %>% 
        group_by(hashtags) %>% 
        dplyr::filter(!is.na(hashtags)) %>% 
        summarise(n = n()) %>% 
        arrange(desc(n)) %>% 
        top_n(25)
```

```
## # A tibble: 37 x 2
##                hashtags     n
##                   <chr> <int>
##  1                photo  2923
##  2             brewbowl  2751
##  3        ibelieveinIPA    65
##  4            SuperBowl    41
##  5         FlyEaglesFly    39
##  6         FirstSqueeze    26
##  7            craftbeer    21
##  8 BrainDeadBottleShare    16
##  9          beerandfood    15
## 10        UntapTheStack    15
## # ... with 27 more rows
```
…
